<svg width="22" height="22" viewBox="0 0 22 22" fill="none" xmlns="http://www.w3.org/2000/svg">
<rect x="-1" y="1" width="20" height="20" rx="3" transform="matrix(-1 0 0 1 20 0)" stroke="#FF4A60" stroke-width="2"/>
<path fill-rule="evenodd" clip-rule="evenodd" d="M13.1211 14.5355C13.5116 14.9261 14.1448 14.9261 14.5353 14.5355C14.9258 14.145 14.9258 13.5118 14.5353 13.1213L12.414 11L14.5353 8.87868C14.9258 8.48816 14.9258 7.85499 14.5353 7.46447C14.1448 7.07394 13.5116 7.07394 13.1211 7.46447L10.9998 9.58579L8.87846 7.46447C8.48793 7.07394 7.85477 7.07394 7.46424 7.46447C7.07372 7.85499 7.07372 8.48816 7.46424 8.87868L9.58557 11L7.46424 13.1213C7.07372 13.5118 7.07372 14.145 7.46424 14.5355C7.85477 14.9261 8.48793 14.9261 8.87846 14.5355L10.9998 12.4142L13.1211 14.5355Z" fill="#FF4A60"/>
</svg>
