<svg width="16" height="16" viewBox="0 0 16 16" fill="none" xmlns="http://www.w3.org/2000/svg">
<path d="M4.39941 5.91845C4.0888 6.22905 4.08881 6.73268 4.3994 7.04328L7.43751 10.0814L7.43746 10.0815L7.44167 10.0855L7.44444 10.0882L7.44446 10.0882C7.51727 10.1577 7.60282 10.2131 7.69722 10.2509C7.89063 10.3336 8.1094 10.3336 8.30281 10.251C8.39712 10.2131 8.48273 10.1578 8.55563 10.0882L8.55568 10.0883L8.55981 10.0841L11.6006 7.04329C11.9113 6.73269 11.9112 6.22905 11.6007 5.91846C11.29 5.60779 10.7863 5.608 10.4757 5.91854L10.4756 5.91869L8.79391 7.60304V3.4427C8.79391 3.14964 8.91029 2.86854 9.11756 2.66127C9.32475 2.45408 9.60586 2.33763 9.89885 2.33763H11.6075C12.1523 2.33855 12.6743 2.55534 13.0595 2.9405C13.4447 3.32573 13.6615 3.84795 13.6624 4.39282V11.6072C13.6615 12.1521 13.4447 12.6743 13.0595 13.0595C12.6743 13.4447 12.152 13.6615 11.6072 13.6624H4.39281C3.84792 13.6615 3.32573 13.4447 2.9405 13.0595C2.55535 12.6743 2.33856 12.1523 2.33763 11.6075V4.39248C2.33855 3.84771 2.55534 3.32565 2.9405 2.9405C3.32565 2.55535 3.84774 2.33856 4.39249 2.33763H4.96183C5.40019 2.33763 5.75558 1.98224 5.75558 1.54388C5.75558 1.10549 5.40029 0.75 4.96183 0.75L4.39198 0.75L4.39168 0.75C3.42614 0.751139 2.50061 1.13518 1.81783 1.81781L1.81779 1.81785C1.13514 2.50065 0.751148 3.42636 0.75 4.39187V4.39217L0.75 11.608L0.75 11.6083C0.751139 12.5739 1.13518 13.4994 1.81781 14.1822L1.81785 14.1822C2.50065 14.8649 3.42636 15.2489 4.39188 15.25H4.39217H11.608H11.6083C12.5739 15.2489 13.4994 14.8648 14.1822 14.1822L14.1822 14.1821C14.8649 13.4993 15.2489 12.5736 15.25 11.6081V11.6078V4.22811V3.97811H15.226C15.1322 3.1649 14.7666 2.4024 14.1822 1.81783L14.1821 1.81779C13.4993 1.13514 12.5736 0.751148 11.6081 0.75H11.6078H9.89884C9.18479 0.75 8.4999 1.0337 7.99488 1.5387C7.48982 2.04362 7.20614 2.72854 7.20614 3.4427V7.60304L5.52438 5.9186L5.52424 5.91846C5.21364 5.60785 4.71001 5.60785 4.39941 5.91845ZM4.39941 5.91845L4.57619 6.09523M4.39941 5.91845C4.39941 5.91845 4.39941 5.91845 4.39941 5.91845L4.57619 6.09523M4.57619 6.09523C4.36321 6.30819 4.36322 6.65354 4.57618 6.8665L5.34746 6.09523C5.1345 5.88226 4.78915 5.88226 4.57619 6.09523Z" fill="#262629" stroke="#262629" stroke-width="0.5"/>
</svg>
